[
  {
    "name": "freemo",
    "display_name": "Jeffrey Phillips Freeman",
    "profiles": [
      {
        "handle": "@freemo@qoto.org", 
        "url": "https://qoto.org/@freemo"
       }
    ],
    "pgp_fingerprint": "8B23 64CD 2403 6DCB 7531 01D0 052D DA8E 0506 CBCE",
    "emails": ["freemo@gmail.com", "jeffrey.freeman@qoto.org", "the@jeffreyfreeman.me"],
    "instance_member_reps": ["qoto"],
    "on_council": true,
    "on_ufoi_instance": true
  },
  {
    "name": "ryle",
    "display_name": "Ryle",
    "profiles": [
      {
        "handle": "@Ryle@awoo.fyi", 
        "url": "https://awoo.fyi/@Ryle"
       }
    ],
    "pgp_fingerprint": "6772 A7A6 11D7 67CD 48CD 1236 FAE0 0B2F EBA7 8538",
    "emails": ["ryle@awoo.fyi"],
    "instance_member_reps": ["awoo!"],
    "on_council": false,
    "on_ufoi_instance": true
  },
  {
    "name": "gregory",
    "display_name": "Gregory",
    "profiles": [
      {
        "handle": "@gregory@magpie.masto.host", 
        "url": "https://magpie.masto.host/@gregory"
       }
    ],
    "instance_member_reps": ["magpie"],
    "on_council": false,
    "on_ufoi_instance": true
  },
  {
    "name": "trinsec",
    "display_name": "Trinsec",
    "profiles": [
      {
        "handle": "@trinsec@qoto.org", 
        "url": "https://qoto.org/@trinsec"
       }
    ],
    "on_council": false,
    "on_ufoi_instance": true
  },
  {
    "name": "steve",
    "display_name": "Steve",
    "profiles": [
      {
        "handle": "@steve@social.technoetic.com", 
        "url": "https://social.technoetic.com/@steve"
       }
    ],
    "instance_member_reps": ["technoetic"],
    "on_council": false,
    "on_ufoi_instance": true
  },
  {
    "name": "dump_stack",
    "display_name": "dump_stack()",
    "profiles": [
      {
        "handle": "@dump_stack@lor.sh", 
        "url": "https://lor.sh/@dump_stack"
       }
    ],
    "pgp_fingerprint": "5DD7 C6F6 0630 F08E DAE7 4711 1525 585D 1B43 C62A",
    "instance_member_reps": ["lor.sh"],
    "on_council": false,
    "on_ufoi_instance": true
  },
  {
    "name": "joaopinheiro",
    "display_name": "João Pinheiro",
    "profiles": [
      {
        "handle": "@joaopinheiro@mastodon.pinheirodeabrantes.pt", 
        "url": "https://mastodon.pinheirodeabrantes.pt/@joaopinheiro"
       }
    ],
    "instance_member_reps": ["pinheirodeabrantes"],
    "on_council": false,
    "on_ufoi_instance": true
  },
  {
    "name": "solsocog",
    "display_name": "SolSoCoG",
    "profiles": [
      {
        "handle": "@SolSoCoG@ieji.de", 
        "url": "https://ieji.de/@SolSoCoG"
       }
    ],
    "instance_member_reps": ["ieji"],
    "on_council": false,
    "on_ufoi_instance": true
  },
  {
    "name": "evan",
    "display_name": "Evan",
    "profiles": [
      {
        "handle": "@evan@public.garden", 
        "url": "https://public.garden/users/evan"
      }
    ],
    "instance_member_reps": ["public garden"],
    "on_council": false,
    "on_ufoi_instance": true
  },
  {
    "name": "greg",
    "display_name": "Greg Clarke",
    "profiles": [
      {
        "handle": "@greg@clar.ke", 
        "url": "https://clar.ke/@greg"
       }
    ],
    "pgp_fingerprint": "4980 A503 9EC9 8AD3 1883  5241 6FC9 D454 B109 B59F",
    "instance_member_reps": ["clar.ke"],
    "on_council": false,
    "on_ufoi_instance": true
  },
  {
    "name": "kravietz",
    "display_name": "Kravietz",
    "profiles": [
      {
        "handle": "@kravietz@agora.echelon.pl", 
        "url": "https://agora.echelon.pl/users/kravietz"
       }
    ],
    "pgp_fingerprint": "6F7B 6BB9 A9B6 3255 5E1A 03C1 32AF 1F39 C4EE 03F2",
    "instance_member_reps": ["echlon"],
    "on_council": false,
    "on_ufoi_instance": true
  },
  {
    "name": "nicole",
    "display_name": "Nicole",
    "profiles": [
      {
        "handle": "@Nicole@infosec.exchange", 
        "url": "https://infosec.exchange/@Nicole"
       }
    ],
    "on_council": false,
    "on_ufoi_instance": false
  },
  {
    "name": "jens",
    "display_name": "Jens Ljungkvist",
    "profiles": [
      {
        "handle": "@jens@toots.nu", 
        "url": "https://toots.nu/@jens"
       }
    ],
    "pgp_fingerprint": "566B 0351 B60F 9931 2F54 9EC4 F293 41BC 92D4 23FE",
    "emails": [ "jens@toots.nu", "jens@ljungkvist.nu"],
    "instance_member_reps": ["toots"],
    "on_council": false,
    "on_ufoi_instance": true
  },
  {
    "name": "t1c",
    "display_name": "ThatOneCalculator",
    "profiles": [
      {
        "handle": "@t1c@i.calckey.cloud", 
        "url": "https://i.calckey.cloud/@t1c"
      },
      {
        "handle": "@t1c@misskey.ai", 
        "url": "https://misskey.ai/@t1c"
      },
      {
        "handle": "@t1c@akko.disqordia.space", 
        "url": "https://akko.disqordia.space/users/t1c"
      },
      {
        "handle": "@that1calculator@pixelfed.social", 
        "url": "https://pixelfed.social/that1calculator"
      },
      {
        "handle": "@thatonecalculator@stop.voring.me", 
        "url": "https://stop.voring.me/@thatonecalculator"
      }
    ],
    "pgp_fingerprint": "CC7D BD71 3BF8 D775 E1B5 A9E7 8703 CACD 0100 0000",
    "emails": ["kainoa@t1c.dev"],
    "instance_member_reps": ["those few calculators", "calckey cloud"],
    "on_council": false,
    "on_ufoi_instance": true
  },
  {
    "name": "eubiedrew",
    "display_name": "Eubie Drew",
    "profiles": [
      {
        "handle": "@EubieDrew@qoto.org", 
        "url": "https://qoto.org/@EubieDrew"
       }
    ],
    "on_council": false,
    "on_ufoi_instance": true
  },
  {
    "name": "sam",
    "display_name": "SAM",
    "profiles": [
      {
        "handle": "@sam@masto.dotsod.com", 
        "url": "https://masto.dotsod.com/@sam"
       }
    ],
    "instance_member_reps": ["dotsod"],
    "on_council": false,
    "on_ufoi_instance": true
  },
  {
    "name": "azis",
    "display_name": "Renato",
    "profiles": [
      {
        "handle": "@Azis@m.azisserver.me", 
        "url": "https://m.azisserver.me/@Azis"
       }
    ],
    "instance_member_reps": ["azis server"],
    "on_council": false,
    "on_ufoi_instance": true
  },
  {
    "name": "pwinn",
    "display_name": "Phillip Winn",
    "profiles": [
      {
        "handle": "@pwinn@qoto.org",
        "url": "https://qoto.org/@pwinn"
      }
    ],
    "pgp_fingerprint": "3FDD EDD7 5F9E 6C72 205E  BC1A F121 65D9 99AE 1C25",
    "emails": ["pwinnski@gmail.com"],
    "on_council": false,
    "on_ufoi_instance": true
  }
]
